…
<!--------------------------- Start your work below --------------------------->

I select 8 variables in the apt_buildings dataset. From the selected
dataset ans2.1 shown below, we can see that each column represents a
variable, each row an observation, and each cell a value. The dataset is
already a tidy dataset.

``` r
ans2.1 <- apt_buildings %>% 
  select(id, no_of_elevators, rsn, year_built, year_registered, no_of_storeys, no_of_units, no_barrier_free_accessible_units)
print(ans2.1)
```

    ## # A tibble: 3,455 × 8
    ##       id no_of_elevators     rsn year_built year_registered no_of_storeys
    ##    <dbl>           <dbl>   <dbl>      <dbl>           <dbl>         <dbl>
    ##  1 10359               3 4154812       1967            2017            17
    ##  2 10360               3 4154815       1970            2017            14
    ##  3 10361               0 4155295       1927            2017             4
    ##  4 10362               1 4155309       1959            2017             5
    ##  5 10363               0 4155318       1943            2017             4
    ##  6 10364               0 4155322       1952              NA             4
    ##  7 10365               0 4155325       1959            2017             4
    ##  8 10366               2 4155928       1971            2017             7
    ##  9 10367               4 4155952       1969            2017            32
    ## 10 10368               2 4155991       1972            2017             4
    ## # ℹ 3,445 more rows
    ## # ℹ 2 more variables: no_of_units <dbl>, no_barrier_free_accessible_units <dbl>
…
Be sure to explain your reasoning for this task. Show us the “before”
and “after”.

<!--------------------------- Start your work below --------------------------->

``` r
# tidy to untidy
untidy_2.2 <- ans2.1 %>%
  gather(key = "variable", value = "value", -id) %>%
  arrange(id)

untidy_2.2
```

    ## # A tibble: 24,185 × 3
    ##       id variable                           value
    ##    <dbl> <chr>                              <dbl>
    ##  1 10359 no_of_elevators                        3
    ##  2 10359 rsn                              4154812
    ##  3 10359 year_built                          1967
    ##  4 10359 year_registered                     2017
    ##  5 10359 no_of_storeys                         17
    ##  6 10359 no_of_units                          218
    ##  7 10359 no_barrier_free_accessible_units       2
    ##  8 10360 no_of_elevators                        3
    ##  9 10360 rsn                              4154815
    ## 10 10360 year_built                          1970
    ## # ℹ 24,175 more rows

``` r
# untidy to tidy
tidy_2.2 <- untidy_2.2 %>%
  spread(key = "variable", value = "value")

tidy_2.2
```

    ## # A tibble: 3,455 × 8
    ##       id no_barrier_free_acce…¹ no_of_elevators no_of_storeys no_of_units    rsn
    ##    <dbl>                  <dbl>           <dbl>         <dbl>       <dbl>  <dbl>
    ##  1 10359                      2               3            17         218 4.15e6
    ##  2 10360                      0               3            14         206 4.15e6
    ##  3 10361                      0               0             4          34 4.16e6
    ##  4 10362                     42               1             5          42 4.16e6
    ##  5 10363                      0               0             4          25 4.16e6
    ##  6 10364                     NA               0             4          34 4.16e6
    ##  7 10365                     14               0             4          14 4.16e6
    ##  8 10366                      0               2             7         105 4.16e6
    ##  9 10367                      0               4            32         571 4.16e6
    ## 10 10368                      1               2             4         171 4.16e6
    ## # ℹ 3,445 more rows
    ## # ℹ abbreviated name: ¹​no_barrier_free_accessible_units
    ## # ℹ 2 more variables: year_built <dbl>, year_registered <dbl>
…
  # Handling missing values
  na.omit()%>%
  # create new variable
  mutate(year_since_built = 2023 - year_built)%>%
  select(year_since_built, everything())%>%
  # arrange based on year_since_built
  arrange(year_since_built)

data_2.3.1
```

    ## # A tibble: 3,361 × 5
    ##    year_since_built year_built separate_gas_meters separate_hydro_meters
    ##               <dbl>      <dbl> <chr>               <chr>                
    ##  1                4       2019 NO                  YES                  
    ##  2                4       2019 NO                  YES                  
    ##  3                4       2019 YES                 YES                  
    ##  4                4       2019 NO                  YES                  
    ##  5                5       2018 NO                  YES                  
    ##  6                5       2018 NO                  YES                  
    ##  7                5       2018 NO                  YES                  
    ##  8                5       2018 NO                  YES                  
    ##  9                6       2017 NO                  YES                  
    ## 10                6       2017 NO                  YES                  
    ## # ℹ 3,351 more rows
    ## # ℹ 1 more variable: sprinkler_system <chr>
…
  # Tidying: Renaming columns for better clarity
  rename(
    accessible_parking_spaces = no_of_accessible_parking_spaces,
    num_storeys = no_of_storeys,
    num_units = no_of_units
  ) %>%
  
  # Dropping irrelevant columns
  select(accessible_parking_spaces, num_storeys, num_units)%>%
  arrange(accessible_parking_spaces)
data_2.3.2
```

    ## # A tibble: 3,332 × 3
    ##    accessible_parking_spaces num_storeys num_units
    ##                        <dbl>       <dbl>     <dbl>
    ##  1                         0           4        34
    ##  2                         0           7       169
    ##  3                         0          12       235
    ##  4                         0           4        44
    ##  5                         0           7        61
    ##  6                         0          15       146
    ##  7                         0           9       116
    ##  8                         0           3        11
    ##  9                         0          16       255
    ## 10                         0           4        39
    ## # ℹ 3,322 more rows
…
